<?xml version="1.0" encoding="UTF-8"?>
<ModuleFile xmlns:xsi="http://www.w3.org/2001/XMLSchema-instance">
	<UiMod name="xHUD" version="2.1.9" date="5/1/2009" >

	<Author name="Talvinen" email="redefiance@gmx.de" />
	<Description text="Extended HUD" />
	<VersionSettings gameVersion="1.3.1" windowsVersion="1.0" savedVariablesVersion="1.0" />

	<Dependencies>
		<Dependency name="EA_TargetWindow" />
		<Dependency name="EA_PlayerStatusWindow" />
		<Dependency name="LibSlash" />
	</Dependencies>

	<Files>
		<File name="LibStub.lua" />
		<File name="LibGUI.lua" />
		<File name="xHUD.lua" />
		<File name="xHUDGUI.lua" />
		<File name="xHUDBuffs.lua" />
		<File name="xHUDTexts.lua" />
		<File name="Textures\Textures.xml" />
	</Files>

	<SavedVariables>
		<SavedVariable name="xHUD.Settings" />
		<SavedVariable name="xHUD.Profiles" global="true" />
	</SavedVariables>

	<OnInitialize>
		<CallFunction name="xHUD.Initialize" />
	</OnInitialize>
	<OnUpdate>
		<CallFunction name="xHUD.OnUpdate" />
	</OnUpdate>

	<WARInfo>
		<Categories>
	<Category name="OTHER" />
		</Categories>
		<Careers>
	<Career name="BLACKGUARD" />
	<Career name="WITCH_ELF" />
	<Career name="DISCIPLE" />
	<Career name="SORCERER" />
	<Career name="IRON_BREAKER" />
	<Career name="SLAYER" />
	<Career name="RUNE_PRIEST" />
	<Career name="ENGINEER" />
	<Career name="BLACK_ORC" />
	<Career name="CHOPPA" />
	<Career name="SHAMAN" />
	<Career name="SQUIG_HERDER" />
	<Career name="WITCH_HUNTER" />
	<Career name="KNIGHT" />
	<Career name="BRIGHT_WIZARD" />
	<Career name="WARRIOR_PRIEST" />
	<Career name="CHOSEN" />
	<Career name= "MARAUDER" />
	<Career name="ZEALOT" />
	<Career name="MAGUS" />
	<Career name="SWORDMASTER" />
	<Career name="SHADOW_WARRIOR" />
	<Career name="WHITE_LION" />
	<Career name="ARCHMAGE" />
		</Careers>
	</WARInfo>

	</UiMod>
</ModuleFile>
